EESchema Schematic File Version 4
LIBS:testtube-lux-cache
EELAYER 26 0
EELAYER END
$Descr A4 11693 8268
encoding utf-8
Sheet 1 1
Title ""
Date ""
Rev ""
Comp ""
Comment1 ""
Comment2 ""
Comment3 ""
Comment4 ""
$EndDescr
$Comp
L MCU_ST_STM32F3:STM32F303K8Tx U2
U 1 1 5BA06A53
P 3250 3850
F 0 "U2" H 2850 4200 50  0000 C CNN
F 1 "STM32F303K8Tx" H 3100 4100 50  0000 C CNN
F 2 "Housings_QFP:LQFP-32_7x7mm_Pitch0.8mm" H 2750 2950 50  0001 R CNN
F 3 "http://www.st.com/st-web-ui/static/active/en/resource/technical/document/datasheet/DM00092070.pdf" H 3250 3850 50  0001 C CNN
	1    3250 3850
	1    0    0    -1  
$EndComp
$Comp
L testtube-lux:TPS61221DCKR U1
U 1 1 5BA07646
P 6100 1300
F 0 "U1" H 6075 1715 50  0000 C CNN
F 1 "TPS61221DCKR" H 6075 1624 50  0000 C CNN
F 2 "Custom Footprints:SC70-6pin" H 6100 1300 50  0001 C CNN
F 3 "" H 6100 1300 50  0001 C CNN
	1    6100 1300
	1    0    0    -1  
$EndComp
$Comp
L power:GND #PWR022
U 1 1 5BA07990
P 3150 5100
F 0 "#PWR022" H 3150 4850 50  0001 C CNN
F 1 "GND" H 3155 4927 50  0000 C CNN
F 2 "" H 3150 5100 50  0001 C CNN
F 3 "" H 3150 5100 50  0001 C CNN
	1    3150 5100
	1    0    0    -1  
$EndComp
$Comp
L power:+3.3V #PWR03
U 1 1 5BA07A18
P 7200 1300
F 0 "#PWR03" H 7200 1150 50  0001 C CNN
F 1 "+3.3V" H 7215 1473 50  0000 C CNN
F 2 "" H 7200 1300 50  0001 C CNN
F 3 "" H 7200 1300 50  0001 C CNN
	1    7200 1300
	1    0    0    -1  
$EndComp
Wire Wire Line
	6450 1450 6750 1450
$Comp
L power:GND #PWR06
U 1 1 5BA07A5B
P 5600 1700
F 0 "#PWR06" H 5600 1450 50  0001 C CNN
F 1 "GND" H 5605 1527 50  0000 C CNN
F 2 "" H 5600 1700 50  0001 C CNN
F 3 "" H 5600 1700 50  0001 C CNN
	1    5600 1700
	1    0    0    -1  
$EndComp
Wire Wire Line
	5700 1450 5600 1450
$Comp
L power:+3.3V #PWR02
U 1 1 5BA07AB3
P 5200 1300
F 0 "#PWR02" H 5200 1150 50  0001 C CNN
F 1 "+3.3V" H 5215 1473 50  0000 C CNN
F 2 "" H 5200 1300 50  0001 C CNN
F 3 "" H 5200 1300 50  0001 C CNN
	1    5200 1300
	1    0    0    -1  
$EndComp
Wire Wire Line
	5700 1300 5200 1300
Wire Wire Line
	5450 1150 5450 550 
Wire Wire Line
	5450 550  5600 550 
Wire Wire Line
	6550 550  6550 1150
Wire Wire Line
	6550 1150 6450 1150
Wire Wire Line
	5450 1150 5700 1150
$Comp
L Device:L L1
U 1 1 5BA07BE4
P 6700 1150
F 0 "L1" H 6753 1196 50  0000 L CNN
F 1 "4.7uH" H 6753 1105 50  0000 L CNN
F 2 "Inductors:Inductor_Wurth_MAPI-2510" H 6700 1150 50  0001 C CNN
F 3 "~" H 6700 1150 50  0001 C CNN
	1    6700 1150
	1    0    0    -1  
$EndComp
Wire Wire Line
	6450 1300 6700 1300
Wire Wire Line
	6700 1000 6700 550 
Wire Wire Line
	6700 550  6550 550 
Connection ~ 6550 550 
$Comp
L Device:C C1
U 1 1 5BA07E6B
P 5600 750
F 0 "C1" H 5715 796 50  0000 L CNN
F 1 "10uF" H 5715 705 50  0000 L CNN
F 2 "Capacitors_SMD:C_0603" H 5638 600 50  0001 C CNN
F 3 "~" H 5600 750 50  0001 C CNN
	1    5600 750 
	1    0    0    -1  
$EndComp
$Comp
L Device:C C5
U 1 1 5BA07F35
P 6750 1650
F 0 "C5" H 6865 1696 50  0000 L CNN
F 1 "10uF" H 6865 1605 50  0000 L CNN
F 2 "Capacitors_SMD:C_0603" H 6788 1500 50  0001 C CNN
F 3 "~" H 6750 1650 50  0001 C CNN
	1    6750 1650
	1    0    0    -1  
$EndComp
Wire Wire Line
	6750 1500 6750 1450
Connection ~ 6750 1450
Wire Wire Line
	6750 1450 7200 1450
$Comp
L power:GND #PWR08
U 1 1 5BA08221
P 6750 1900
F 0 "#PWR08" H 6750 1650 50  0001 C CNN
F 1 "GND" H 6755 1727 50  0000 C CNN
F 2 "" H 6750 1900 50  0001 C CNN
F 3 "" H 6750 1900 50  0001 C CNN
	1    6750 1900
	1    0    0    -1  
$EndComp
Wire Wire Line
	6750 1800 6750 1900
$Comp
L power:GND #PWR01
U 1 1 5BA083B8
P 3100 1100
F 0 "#PWR01" H 3100 850 50  0001 C CNN
F 1 "GND" H 3105 927 50  0000 C CNN
F 2 "" H 3100 1100 50  0001 C CNN
F 3 "" H 3100 1100 50  0001 C CNN
	1    3100 1100
	1    0    0    -1  
$EndComp
Wire Wire Line
	3100 1050 3100 1100
Wire Wire Line
	3150 4850 3150 5000
Wire Wire Line
	3250 4850 3250 5000
Wire Wire Line
	3250 5000 3150 5000
Wire Wire Line
	3150 5000 3150 5100
$Comp
L Connector:Conn_01x02_Male J1
U 1 1 5BA0955F
P 2300 750
F 0 "J1" H 2406 928 50  0000 C CNN
F 1 "Batt" H 2406 837 50  0000 C CNN
F 2 "Battery:BatteryHolder_Keystone_2468_2xAAA" H 2300 750 50  0001 C CNN
F 3 "~" H 2300 750 50  0001 C CNN
	1    2300 750 
	1    0    0    -1  
$EndComp
Wire Wire Line
	2500 850  2700 850 
Wire Wire Line
	2700 850  2700 1050
Wire Wire Line
	2700 1050 3100 1050
$Comp
L power:+3.3V #PWR011
U 1 1 5BA0ACF0
P 3150 2500
F 0 "#PWR011" H 3150 2350 50  0001 C CNN
F 1 "+3.3V" H 3165 2673 50  0000 C CNN
F 2 "" H 3150 2500 50  0001 C CNN
F 3 "" H 3150 2500 50  0001 C CNN
	1    3150 2500
	1    0    0    -1  
$EndComp
Wire Wire Line
	3150 2500 3150 2650
Wire Wire Line
	3250 2950 3250 2650
Connection ~ 3150 2650
Wire Wire Line
	3150 2650 3150 2950
$Comp
L Device:R R8
U 1 1 5BA0BD3E
P 1750 3500
F 0 "R8" H 1820 3546 50  0000 L CNN
F 1 "10K" H 1820 3455 50  0000 L CNN
F 2 "Resistors_SMD:R_0603" V 1680 3500 50  0001 C CNN
F 3 "~" H 1750 3500 50  0001 C CNN
	1    1750 3500
	1    0    0    -1  
$EndComp
$Comp
L power:GND #PWR017
U 1 1 5BA0C672
P 1750 3750
F 0 "#PWR017" H 1750 3500 50  0001 C CNN
F 1 "GND" H 1755 3577 50  0000 C CNN
F 2 "" H 1750 3750 50  0001 C CNN
F 3 "" H 1750 3750 50  0001 C CNN
	1    1750 3750
	1    0    0    -1  
$EndComp
Wire Wire Line
	1750 3650 1750 3750
Wire Wire Line
	2650 3150 1800 3150
$Comp
L Switch:SW_Push SW4
U 1 1 5BA0D459
P 1250 3150
F 0 "SW4" H 1250 3435 50  0000 C CNN
F 1 "RST_BTN" H 1250 3344 50  0000 C CNN
F 2 "Custom Footprints:SMD_PUSH" H 1250 3350 50  0001 C CNN
F 3 "" H 1250 3350 50  0001 C CNN
	1    1250 3150
	1    0    0    -1  
$EndComp
$Comp
L Device:C C7
U 1 1 5BA0DA14
P 1250 3500
F 0 "C7" V 998 3500 50  0000 C CNN
F 1 "100nF" V 1089 3500 50  0000 C CNN
F 2 "Capacitors_SMD:C_0603" H 1288 3350 50  0001 C CNN
F 3 "~" H 1250 3500 50  0001 C CNN
	1    1250 3500
	0    1    1    0   
$EndComp
Wire Wire Line
	1550 3150 1550 3500
Wire Wire Line
	1550 3500 1400 3500
Connection ~ 1550 3150
Wire Wire Line
	1550 3150 1450 3150
Wire Wire Line
	1050 3150 650  3150
Wire Wire Line
	650  3150 650  3500
Wire Wire Line
	650  3500 1100 3500
$Comp
L power:GND #PWR016
U 1 1 5BA0EBD1
P 650 3700
F 0 "#PWR016" H 650 3450 50  0001 C CNN
F 1 "GND" H 655 3527 50  0000 C CNN
F 2 "" H 650 3700 50  0001 C CNN
F 3 "" H 650 3700 50  0001 C CNN
	1    650  3700
	1    0    0    -1  
$EndComp
Wire Wire Line
	650  3700 650  3500
Connection ~ 650  3500
$Comp
L power:GND #PWR07
U 1 1 5BA0F4CF
P 700 1900
F 0 "#PWR07" H 700 1650 50  0001 C CNN
F 1 "GND" H 705 1727 50  0000 C CNN
F 2 "" H 700 1900 50  0001 C CNN
F 3 "" H 700 1900 50  0001 C CNN
	1    700  1900
	1    0    0    -1  
$EndComp
$Comp
L power:+3.3V #PWR04
U 1 1 5BA0F518
P 700 1400
F 0 "#PWR04" H 700 1250 50  0001 C CNN
F 1 "+3.3V" H 715 1573 50  0000 C CNN
F 2 "" H 700 1400 50  0001 C CNN
F 3 "" H 700 1400 50  0001 C CNN
	1    700  1400
	1    0    0    -1  
$EndComp
$Comp
L Device:C C2
U 1 1 5BA0F576
P 700 1650
F 0 "C2" H 815 1696 50  0000 L CNN
F 1 "100nF" H 815 1605 50  0000 L CNN
F 2 "Capacitors_SMD:C_0603" H 738 1500 50  0001 C CNN
F 3 "~" H 700 1650 50  0001 C CNN
	1    700  1650
	1    0    0    -1  
$EndComp
$Comp
L Device:C C3
U 1 1 5BA0F5DA
P 1150 1650
F 0 "C3" H 1265 1696 50  0000 L CNN
F 1 "100nF" H 1265 1605 50  0000 L CNN
F 2 "Capacitors_SMD:C_0603" H 1188 1500 50  0001 C CNN
F 3 "~" H 1150 1650 50  0001 C CNN
	1    1150 1650
	1    0    0    -1  
$EndComp
Wire Wire Line
	700  1500 700  1450
Wire Wire Line
	1150 1500 1150 1450
Wire Wire Line
	1150 1450 700  1450
Connection ~ 700  1450
Wire Wire Line
	700  1450 700  1400
Wire Wire Line
	700  1800 700  1850
Wire Wire Line
	700  1850 1150 1850
Wire Wire Line
	1150 1850 1150 1800
Connection ~ 700  1850
Wire Wire Line
	700  1850 700  1900
Text Notes 600  2200 0    50   ~ 0
These caps should be near the VDD/VDDA pins.
Text Label 1550 3150 0    50   ~ 0
NRST
Wire Wire Line
	1750 3350 2650 3350
Wire Wire Line
	3350 2950 3350 2650
Wire Wire Line
	3150 2650 3250 2650
Connection ~ 3250 2650
Wire Wire Line
	3250 2650 3350 2650
Text Label 2650 750  0    50   ~ 0
V_BATT
$Comp
L Connector:Conn_01x04_Male J3
U 1 1 5BA16C06
P 1350 4550
F 0 "J3" H 1323 4523 50  0000 R CNN
F 1 "Lux_Sensor_Conn" H 1323 4432 50  0000 R CNN
F 2 "Pin_Headers:Pin_Header_Straight_1x04_Pitch2.54mm" H 1350 4550 50  0001 C CNN
F 3 "~" H 1350 4550 50  0001 C CNN
	1    1350 4550
	1    0    0    -1  
$EndComp
$Comp
L power:+3.3V #PWR019
U 1 1 5BA17876
P 1800 4350
F 0 "#PWR019" H 1800 4200 50  0001 C CNN
F 1 "+3.3V" H 1815 4523 50  0000 C CNN
F 2 "" H 1800 4350 50  0001 C CNN
F 3 "" H 1800 4350 50  0001 C CNN
	1    1800 4350
	-1   0    0    -1  
$EndComp
$Comp
L power:GND #PWR020
U 1 1 5BA178B7
P 1750 4800
F 0 "#PWR020" H 1750 4550 50  0001 C CNN
F 1 "GND" H 1755 4627 50  0000 C CNN
F 2 "" H 1750 4800 50  0001 C CNN
F 3 "" H 1750 4800 50  0001 C CNN
	1    1750 4800
	-1   0    0    -1  
$EndComp
Wire Wire Line
	1550 4450 1800 4450
Wire Wire Line
	1800 4450 1800 4350
Wire Wire Line
	1550 4750 1750 4750
Wire Wire Line
	1750 4750 1750 4800
Wire Wire Line
	2650 4650 1550 4650
Wire Wire Line
	2650 4550 1550 4550
Text Label 2250 4650 0    50   ~ 0
I2C_SDA
Text Label 2250 4550 0    50   ~ 0
I2C_SCLK
$Comp
L Connector:Conn_01x08_Male J2
U 1 1 5BA2215F
P 6600 3950
F 0 "J2" H 6572 3923 50  0000 R CNN
F 1 "LCD_Connector" H 6572 3832 50  0000 R CNN
F 2 "Custom Footprints:LCD_5110" H 6600 3950 50  0001 C CNN
F 3 "~" H 6600 3950 50  0001 C CNN
	1    6600 3950
	-1   0    0    -1  
$EndComp
$Comp
L power:+3.3V #PWR015
U 1 1 5BA2229D
P 6200 3550
F 0 "#PWR015" H 6200 3400 50  0001 C CNN
F 1 "+3.3V" H 6215 3723 50  0000 C CNN
F 2 "" H 6200 3550 50  0001 C CNN
F 3 "" H 6200 3550 50  0001 C CNN
	1    6200 3550
	1    0    0    -1  
$EndComp
Wire Wire Line
	6200 3650 6200 3550
Wire Wire Line
	6200 3650 6400 3650
$Comp
L power:GND #PWR014
U 1 1 5BA240AE
P 5850 3500
F 0 "#PWR014" H 5850 3250 50  0001 C CNN
F 1 "GND" H 5855 3327 50  0000 C CNN
F 2 "" H 5850 3500 50  0001 C CNN
F 3 "" H 5850 3500 50  0001 C CNN
	1    5850 3500
	1    0    0    -1  
$EndComp
Wire Wire Line
	6400 3750 6000 3750
Wire Wire Line
	6000 3750 6000 3450
Wire Wire Line
	6000 3450 5850 3450
Wire Wire Line
	5850 3450 5850 3500
Wire Wire Line
	3750 3150 4350 3150
Text Label 4350 3150 2    50   ~ 0
LCD_RST
Wire Wire Line
	3750 3250 4350 3250
Text Label 4350 3250 2    50   ~ 0
LCD_CE
Wire Wire Line
	3750 3550 4350 3550
Text Label 4350 3550 2    50   ~ 0
LCD_DC
Wire Wire Line
	6400 3850 5750 3850
Wire Wire Line
	6400 3950 5750 3950
Wire Wire Line
	6400 4050 5750 4050
Wire Wire Line
	6400 4150 5750 4150
Wire Wire Line
	6400 4250 5750 4250
Text Label 5750 3850 0    50   ~ 0
LCD_CE
Text Label 5750 3950 0    50   ~ 0
LCD_RST
Text Label 5750 4050 0    50   ~ 0
LCD_DC
Text Label 5750 4150 0    50   ~ 0
SPI_MOSI
Text Label 5750 4250 0    50   ~ 0
SPI_SCLK
NoConn ~ 6400 4350
Text Label 4400 4450 2    50   ~ 0
SWDIO
Text Label 4400 4550 2    50   ~ 0
SWCLK
Wire Wire Line
	2650 3750 2400 3750
Text Label 2400 3750 0    50   ~ 0
MCO
$Comp
L Device:R R7
U 1 1 5BA1DFC2
P 1800 2900
F 0 "R7" H 1870 2946 50  0000 L CNN
F 1 "10K" H 1870 2855 50  0000 L CNN
F 2 "Resistors_SMD:R_0603" V 1730 2900 50  0001 C CNN
F 3 "~" H 1800 2900 50  0001 C CNN
	1    1800 2900
	1    0    0    -1  
$EndComp
Wire Wire Line
	1800 3050 1800 3150
Connection ~ 1800 3150
Wire Wire Line
	1800 3150 1550 3150
$Comp
L power:+3.3V #PWR012
U 1 1 5BA1FF5C
P 1800 2600
F 0 "#PWR012" H 1800 2450 50  0001 C CNN
F 1 "+3.3V" H 1815 2773 50  0000 C CNN
F 2 "" H 1800 2600 50  0001 C CNN
F 3 "" H 1800 2600 50  0001 C CNN
	1    1800 2600
	1    0    0    -1  
$EndComp
Wire Wire Line
	1800 2600 1800 2750
$Comp
L Device:C C4
U 1 1 5BA2222E
P 1650 1650
F 0 "C4" H 1765 1696 50  0000 L CNN
F 1 "100nF" H 1765 1605 50  0000 L CNN
F 2 "Capacitors_SMD:C_0603" H 1688 1500 50  0001 C CNN
F 3 "~" H 1650 1650 50  0001 C CNN
	1    1650 1650
	1    0    0    -1  
$EndComp
Wire Wire Line
	1150 1450 1650 1450
Wire Wire Line
	1650 1450 1650 1500
Connection ~ 1150 1450
Wire Wire Line
	1650 1800 1650 1850
Wire Wire Line
	1650 1850 1150 1850
Connection ~ 1150 1850
Wire Wire Line
	3750 4450 4450 4450
Wire Wire Line
	3750 4550 4450 4550
Wire Wire Line
	4450 4350 4400 4350
Wire Wire Line
	4400 4350 4400 4250
$Comp
L power:+3.3V #PWR018
U 1 1 5BA39D2B
P 4400 4250
F 0 "#PWR018" H 4400 4100 50  0001 C CNN
F 1 "+3.3V" H 4415 4423 50  0000 C CNN
F 2 "" H 4400 4250 50  0001 C CNN
F 3 "" H 4400 4250 50  0001 C CNN
	1    4400 4250
	1    0    0    -1  
$EndComp
$Comp
L power:GND #PWR021
U 1 1 5BA39D84
P 4250 4850
F 0 "#PWR021" H 4250 4600 50  0001 C CNN
F 1 "GND" H 4255 4677 50  0000 C CNN
F 2 "" H 4250 4850 50  0001 C CNN
F 3 "" H 4250 4850 50  0001 C CNN
	1    4250 4850
	1    0    0    -1  
$EndComp
Connection ~ 3150 5000
$Comp
L Device:C C6
U 1 1 5BA70937
P 7200 1650
F 0 "C6" H 7315 1696 50  0000 L CNN
F 1 "100nF" H 7315 1605 50  0000 L CNN
F 2 "Capacitors_SMD:C_0603" H 7238 1500 50  0001 C CNN
F 3 "~" H 7200 1650 50  0001 C CNN
	1    7200 1650
	1    0    0    -1  
$EndComp
$Comp
L power:GND #PWR09
U 1 1 5BA77443
P 7200 1900
F 0 "#PWR09" H 7200 1650 50  0001 C CNN
F 1 "GND" H 7205 1727 50  0000 C CNN
F 2 "" H 7200 1900 50  0001 C CNN
F 3 "" H 7200 1900 50  0001 C CNN
	1    7200 1900
	1    0    0    -1  
$EndComp
Wire Wire Line
	7200 1800 7200 1900
Connection ~ 7200 1450
Wire Wire Line
	7200 1450 7200 1500
Wire Wire Line
	7200 1300 7200 1450
$Comp
L Connector:Conn_01x05_Female J4
U 1 1 5BA4C39B
P 4650 4550
F 0 "J4" H 4677 4576 50  0000 L CNN
F 1 "Conn_01x05_Female" H 4677 4485 50  0000 L CNN
F 2 "Pin_Headers:Pin_Header_Straight_1x05_Pitch2.54mm" H 4650 4550 50  0001 C CNN
F 3 "~" H 4650 4550 50  0001 C CNN
	1    4650 4550
	1    0    0    -1  
$EndComp
Wire Wire Line
	4450 4750 4250 4750
Wire Wire Line
	4250 4750 4250 4850
Wire Wire Line
	4450 4650 4150 4650
Text Label 4150 4650 0    50   ~ 0
NRST
$Comp
L Device:R R1
U 1 1 5BA5FA26
P 3550 950
F 0 "R1" H 3480 904 50  0000 R CNN
F 1 "100K" H 3480 995 50  0000 R CNN
F 2 "Resistors_SMD:R_0603" V 3480 950 50  0001 C CNN
F 3 "~" H 3550 950 50  0001 C CNN
	1    3550 950 
	-1   0    0    1   
$EndComp
Wire Wire Line
	3550 800  3550 750 
Connection ~ 3550 750 
Wire Wire Line
	3550 750  3700 750 
Wire Wire Line
	3550 1100 3550 1150
Wire Wire Line
	3550 1150 3900 1150
Wire Wire Line
	3900 1150 3900 1050
Wire Wire Line
	4100 750  4500 750 
$Comp
L Device:R R2
U 1 1 5BA7432D
P 4500 950
F 0 "R2" H 4570 996 50  0000 L CNN
F 1 "100K" H 4570 905 50  0000 L CNN
F 2 "Resistors_SMD:R_0603" V 4430 950 50  0001 C CNN
F 3 "~" H 4500 950 50  0001 C CNN
	1    4500 950 
	1    0    0    -1  
$EndComp
$Comp
L Device:D_Schottky D1
U 1 1 5BA7898D
P 4500 1300
F 0 "D1" V 4546 1221 50  0000 R CNN
F 1 "1N4148X-TP" V 4455 1221 50  0000 R CNN
F 2 "Diodes_SMD:D_SOD-523" H 4500 1300 50  0001 C CNN
F 3 "~" H 4500 1300 50  0001 C CNN
	1    4500 1300
	0    -1   -1   0   
$EndComp
Wire Wire Line
	4500 1100 4500 1150
$Comp
L Device:D_Schottky D2
U 1 1 5BA7CF05
P 4250 1650
F 0 "D2" H 4250 1434 50  0000 C CNN
F 1 "1N4148X-TP" H 4250 1525 50  0000 C CNN
F 2 "Diodes_SMD:D_SOD-523" H 4250 1650 50  0001 C CNN
F 3 "~" H 4250 1650 50  0001 C CNN
	1    4250 1650
	-1   0    0    1   
$EndComp
$Comp
L Device:R R4
U 1 1 5BA85ACB
P 3900 1350
F 0 "R4" H 3970 1396 50  0000 L CNN
F 1 "220R" H 3970 1305 50  0000 L CNN
F 2 "Resistors_SMD:R_0603" V 3830 1350 50  0001 C CNN
F 3 "~" H 3900 1350 50  0001 C CNN
	1    3900 1350
	-1   0    0    1   
$EndComp
Wire Wire Line
	3900 1200 3900 1150
Connection ~ 3900 1150
Wire Wire Line
	3900 1500 3900 1650
Wire Wire Line
	4100 1650 3900 1650
Connection ~ 3900 1650
Wire Wire Line
	3900 1650 3900 1800
Wire Wire Line
	4500 800  4500 750 
Wire Wire Line
	4500 1450 4500 1650
Wire Wire Line
	4500 1650 4400 1650
$Comp
L power:GND #PWR010
U 1 1 5BA9C701
P 3900 2300
F 0 "#PWR010" H 3900 2050 50  0001 C CNN
F 1 "GND" H 3905 2127 50  0000 C CNN
F 2 "" H 3900 2300 50  0001 C CNN
F 3 "" H 3900 2300 50  0001 C CNN
	1    3900 2300
	1    0    0    -1  
$EndComp
Wire Wire Line
	3900 2200 3900 2300
$Comp
L Device:R R6
U 1 1 5BAA14E5
P 4450 2000
F 0 "R6" V 4657 2000 50  0000 C CNN
F 1 "1K" V 4566 2000 50  0000 C CNN
F 2 "Resistors_SMD:R_0603" V 4380 2000 50  0001 C CNN
F 3 "~" H 4450 2000 50  0001 C CNN
	1    4450 2000
	0    1    1    0   
$EndComp
Wire Wire Line
	4300 2000 4200 2000
$Comp
L Switch:SW_Push SW1
U 1 1 5BAB525E
P 4900 1650
F 0 "SW1" H 4900 1465 50  0000 C CNN
F 1 "BTN_GREEN" H 4900 1556 50  0000 C CNN
F 2 "Custom Footprints:C&K_SW" H 4900 1850 50  0001 C CNN
F 3 "" H 4900 1850 50  0001 C CNN
	1    4900 1650
	1    0    0    1   
$EndComp
Wire Wire Line
	4700 1650 4500 1650
Connection ~ 4500 1650
Wire Wire Line
	5100 1650 5600 1650
Connection ~ 5600 1650
Wire Wire Line
	5600 1450 5600 1650
Wire Wire Line
	5600 1700 5600 1650
Wire Wire Line
	3750 3650 4350 3650
Text Label 4350 3650 2    50   ~ 0
BATT_SENSE
$Comp
L Device:Jumper_NC_Dual JP1
U 1 1 5BAA48BD
P 4850 750
F 0 "JP1" H 4850 896 50  0000 C CNN
F 1 " " H 4850 987 50  0000 C CNN
F 2 "Pin_Headers:Pin_Header_Straight_1x03_Pitch2.54mm" H 4850 750 50  0001 C CNN
F 3 "~" H 4850 750 50  0001 C CNN
	1    4850 750 
	-1   0    0    1   
$EndComp
Wire Wire Line
	4500 750  4600 750 
Connection ~ 4500 750 
Wire Wire Line
	4850 650  4850 550 
Wire Wire Line
	4850 550  5450 550 
Connection ~ 5450 550 
Wire Wire Line
	5100 750  5400 750 
Text Label 5400 750  2    50   ~ 0
V_BATT
Wire Wire Line
	3750 3750 4350 3750
Text Label 4350 3750 2    50   ~ 0
PWR_ON
Text Label 5000 2000 2    50   ~ 0
PWR_ON
Wire Wire Line
	4600 2000 5000 2000
Wire Wire Line
	3750 4150 4250 4150
Wire Wire Line
	3750 4250 4250 4250
Text Label 4250 4250 2    50   ~ 0
BTN_BLACK
Text Label 4250 4150 2    50   ~ 0
BTN_RED
Wire Wire Line
	7950 750  8200 750 
Wire Wire Line
	8200 750  8200 850 
Text Label 7950 750  0    50   ~ 0
V_BATT
$Comp
L Device:R R3
U 1 1 5BB19EE4
P 8200 1000
F 0 "R3" H 8270 1046 50  0000 L CNN
F 1 "470K" H 8270 955 50  0000 L CNN
F 2 "Resistors_SMD:R_0603" V 8130 1000 50  0001 C CNN
F 3 "~" H 8200 1000 50  0001 C CNN
	1    8200 1000
	1    0    0    -1  
$EndComp
$Comp
L Device:R R5
U 1 1 5BB1A058
P 8200 1350
F 0 "R5" H 8270 1396 50  0000 L CNN
F 1 "470K" H 8270 1305 50  0000 L CNN
F 2 "Resistors_SMD:R_0603" V 8130 1350 50  0001 C CNN
F 3 "~" H 8200 1350 50  0001 C CNN
	1    8200 1350
	1    0    0    -1  
$EndComp
Wire Wire Line
	8200 1200 8200 1150
$Comp
L power:GND #PWR05
U 1 1 5BB215A5
P 8200 1550
F 0 "#PWR05" H 8200 1300 50  0001 C CNN
F 1 "GND" H 8205 1377 50  0000 C CNN
F 2 "" H 8200 1550 50  0001 C CNN
F 3 "" H 8200 1550 50  0001 C CNN
	1    8200 1550
	1    0    0    -1  
$EndComp
Wire Wire Line
	8200 1550 8200 1500
Text Label 8950 1150 2    50   ~ 0
BATT_SENSE
Wire Wire Line
	8200 1150 8950 1150
$Comp
L Switch:SW_Push SW2
U 1 1 5BB7379D
P 7900 2450
F 0 "SW2" V 7854 2598 50  0000 L CNN
F 1 "BTN_RED" V 7945 2598 50  0000 L CNN
F 2 "Custom Footprints:C&K_SW" H 7900 2650 50  0001 C CNN
F 3 "" H 7900 2650 50  0001 C CNN
	1    7900 2450
	0    1    1    0   
$EndComp
$Comp
L Switch:SW_Push SW3
U 1 1 5BB738D2
P 8600 2450
F 0 "SW3" V 8554 2598 50  0000 L CNN
F 1 "BTN_BLACK" V 8645 2598 50  0000 L CNN
F 2 "Custom Footprints:C&K_SW" H 8600 2650 50  0001 C CNN
F 3 "" H 8600 2650 50  0001 C CNN
	1    8600 2450
	0    1    1    0   
$EndComp
Wire Wire Line
	7900 2650 7900 2800
Wire Wire Line
	7900 2800 8250 2800
Wire Wire Line
	8600 2800 8600 2650
$Comp
L power:GND #PWR013
U 1 1 5BB7B0A2
P 8250 2900
F 0 "#PWR013" H 8250 2650 50  0001 C CNN
F 1 "GND" H 8255 2727 50  0000 C CNN
F 2 "" H 8250 2900 50  0001 C CNN
F 3 "" H 8250 2900 50  0001 C CNN
	1    8250 2900
	1    0    0    -1  
$EndComp
Wire Wire Line
	8250 2900 8250 2800
Connection ~ 8250 2800
Wire Wire Line
	8250 2800 8600 2800
Wire Wire Line
	7900 2250 7900 2100
Wire Wire Line
	7900 2100 8200 2100
Wire Wire Line
	8600 2250 8600 2100
Wire Wire Line
	8600 2100 8950 2100
Text Label 8200 2100 2    50   ~ 0
BTN_RED
Text Label 8950 2100 2    50   ~ 0
BTN_BLACK
$Comp
L Device:Q_PNP_BEC Q1
U 1 1 5BBBA494
P 3900 850
F 0 "Q1" V 4228 850 50  0000 C CNN
F 1 "Q_PNP_BEC" V 4137 850 50  0000 C CNN
F 2 "TO_SOT_Packages_SMD:SOT-23" H 4100 950 50  0001 C CNN
F 3 "~" H 3900 850 50  0001 C CNN
	1    3900 850 
	0    1    -1   0   
$EndComp
$Comp
L Device:Q_NPN_BEC Q2
U 1 1 5BBBA70D
P 4000 2000
F 0 "Q2" H 4190 2046 50  0000 L CNN
F 1 "Q_NPN_BEC" H 4190 1955 50  0000 L CNN
F 2 "TO_SOT_Packages_SMD:SOT-23" H 4200 2100 50  0001 C CNN
F 3 "~" H 4000 2000 50  0001 C CNN
	1    4000 2000
	-1   0    0    -1  
$EndComp
Wire Wire Line
	2500 750  3550 750 
Wire Wire Line
	5600 600  5600 550 
Connection ~ 5600 550 
Wire Wire Line
	5600 550  6550 550 
$Comp
L power:GND #PWR0101
U 1 1 5BBDB873
P 5600 900
F 0 "#PWR0101" H 5600 650 50  0001 C CNN
F 1 "GND" H 5605 727 50  0000 C CNN
F 2 "" H 5600 900 50  0001 C CNN
F 3 "" H 5600 900 50  0001 C CNN
	1    5600 900 
	1    0    0    -1  
$EndComp
Wire Wire Line
	2650 4250 2250 4250
Wire Wire Line
	2650 4450 2250 4450
Text Label 2250 4450 0    50   ~ 0
SPI_MOSI
Text Label 2250 4250 0    50   ~ 0
SPI_SCLK
Text Label 4350 3350 2    50   ~ 0
USART_TX
Text Label 4350 3450 2    50   ~ 0
USART_RX
$Comp
L Connector:Conn_01x02_Female J5
U 1 1 5C13C631
P 4700 3350
F 0 "J5" H 4727 3326 50  0000 L CNN
F 1 "Conn_01x02_Female" H 4727 3235 50  0000 L CNN
F 2 "Pin_Headers:Pin_Header_Straight_1x02_Pitch2.54mm" H 4700 3350 50  0001 C CNN
F 3 "~" H 4700 3350 50  0001 C CNN
	1    4700 3350
	1    0    0    -1  
$EndComp
Wire Wire Line
	3750 3350 4500 3350
Wire Wire Line
	3750 3450 4500 3450
$EndSCHEMATC
